[{
    "_id": "co-50",
    "_parentId": "course",
    "_type": "page",
    "_classes": "banner_01",
    "height": "570",
    "title": "Introduction",
    "displayTitle": "Introduction",
    "pageBody": "",
    "body": "See how you can use Facebook IQ, our marketing insights platform, to gather insights that you can build campaigns with.",
    "_graphic": {
      "src": "course/en/images/contentObjects/landing_01.jpg",
      "alt": "Woman in office looking at a computer screen"
    },
    "linkText": "View",
    "durationLabel": "Duration:",
    "duration": "4 mins",
    "_pageLevelProgress": {
      "_isEnabled": true
    }
  },
  {
    "_id": "co-100",
    "_parentId": "course",
    "_type": "page",
    "_classes": "banner_01",
    "height": "570",
    "title": "Facebook IQ Research Studies",
    "displayTitle": "Facebook IQ Research Studies",
    "pageBody": "",
    "body": "Facebook IQ studies provide people, vertical and advertising insights. Learn about each of these three focus areas, and how to access them.",
    "_graphic": {
      "src": "course/en/images/contentObjects/landing_02.jpg",
      "alt": "3 woman in an office looking at a computer."
    },
    "linkText": "View",
    "durationLabel": "Duration:",
    "duration": "4 mins",
    "_pageLevelProgress": {
      "_isEnabled": true
    }
  },
  {
    "_id": "co-150",
    "_parentId": "course",
    "_type": "page",
    "_classes": "banner_01",
    "height": "570",
    "title": "Facebook IQ Tools and Resources",
    "displayTitle": "Facebook IQ Tools and Resources",
    "pageBody": "",
    "body": "Use Facebook IQ tools and resources to explore data-driven insights, and then act upon them.",
    "_graphic": {
      "src": "course/en/images/contentObjects/landing_03.jpg",
      "alt": "Woman is at home on the computer."
    },
    "linkText": "View",
    "durationLabel": "Duration:",
    "duration": "4 mins",
    "_pageLevelProgress": {
      "_isEnabled": true
    }
  },
	{
		"_id": "co-200",
		"_parentId": "course",
		"_type": "page",
		"_classes": "banner_01",
		"height": "570",
		"title": "Tying It All Together",
		"displayTitle": "Tying It All Together",
		"pageBody": "",
		"body": "Let's finish this course by reviewing how Facebook IQ studies, tools and resources can help you create more informed advertising campaigns.",
		"_graphic": {
			"src": "course/en/images/contentObjects/landing_05.jpg",
			"alt": "Man in office working with woman on his computer"
		},
		"linkText": "View",
		"durationLabel": "Duration:",
		"duration": "4 mins",
		"_pageLevelProgress": {
			"_isEnabled": true
		}
	}

]
